/* XPM */
static char * image_xpm[] = {
"20 20 196 2",
"  	c None",
". 	c #9F9D99",
"+ 	c #787064",
"@ 	c #BEAA8B",
"# 	c #BFAB8C",
"$ 	c #837C71",
"% 	c #8F8D89",
"& 	c #7F6348",
"* 	c #BEAE95",
"= 	c #F5D2BE",
"- 	c #DD7F7F",
"; 	c #FDFDFB",
"> 	c #9F9FE3",
", 	c #8080DC",
"' 	c #EEEEF8",
") 	c #FEFEFC",
"! 	c #CEBEA5",
"~ 	c #8F8A85",
"{ 	c #C2C2C1",
"] 	c #AF7A45",
"^ 	c #FEEEDC",
"/ 	c #8F6B49",
"( 	c #F6D3A9",
"_ 	c #FDF7EC",
": 	c #CA3433",
"< 	c #BD0103",
"[ 	c #6868F1",
"} 	c #0202CC",
"| 	c #7C7CDD",
"1 	c #FEF5E5",
"2 	c #807464",
"3 	c #DEDDDD",
"4 	c #AFA9A2",
"5 	c #AF7132",
"6 	c #D6CCC1",
"7 	c #876648",
"8 	c #FDD9AC",
"9 	c #FDEEC1",
"0 	c #FDF79F",
"a 	c #E8A49A",
"b 	c #E5988C",
"c 	c #F2E5DC",
"d 	c #9F9FFC",
"e 	c #F2F2FC",
"f 	c #DECAAA",
"g 	c #636364",
"h 	c #AFAFAE",
"i 	c #874B0F",
"j 	c #C29D6D",
"k 	c #FDF6E9",
"l 	c #CDC835",
"m 	c #BDBD03",
"n 	c #E6D77C",
"o 	c #FDF1DD",
"p 	c #FDE9C9",
"q 	c #FDEFD8",
"r 	c #FEEED4",
"s 	c #83C87D",
"t 	c #02A704",
"u 	c #402F1F",
"v 	c #A3621E",
"w 	c #FDE0B6",
"x 	c #D3CB45",
"y 	c #C5C31D",
"z 	c #ECDD93",
"A 	c #9FCC96",
"B 	c #21901F",
"C 	c #9BCD9B",
"D 	c #7F7F7F",
"E 	c #BF7A34",
"F 	c #6B4623",
"G 	c #FDE2BE",
"H 	c #FDEDD3",
"I 	c #FEF8ED",
"J 	c #FEF4E3",
"K 	c #DEBA91",
"L 	c #7F4E1D",
"M 	c #FACF98",
"N 	c #F8DBB2",
"O 	c #90541E",
"P 	c #AB6A28",
"Q 	c #FDDEB5",
"R 	c #FAD7D1",
"S 	c #DA90D9",
"T 	c #E5A7D1",
"U 	c #FEEACA",
"V 	c #FEF3E1",
"W 	c #A07146",
"X 	c #616163",
"Y 	c #8E857A",
"Z 	c #CE8E48",
"` 	c #FEDEAF",
" .	c #FDE9CA",
"..	c #F4DFC6",
"+.	c #90592A",
"@.	c #AF6B23",
"#.	c #FDE6C5",
"$.	c #F3B3E9",
"%.	c #940295",
"&.	c #A13C95",
"*.	c #FEDEB8",
"=.	c #514132",
"-.	c #5F554B",
";.	c #FEC383",
">.	c #FEEACB",
",.	c #F8E3C5",
"'.	c #8F5723",
").	c #99642F",
"!.	c #CBCBCB",
"~.	c #EAA9D9",
"{.	c #C884C0",
"].	c #FEF2DE",
"^.	c #CB935A",
"/.	c #4C3C30",
"(.	c #B6B6B5",
"_.	c #A66725",
":.	c #FED7A1",
"<.	c #FEE3B8",
"[.	c #EAD9BE",
"}.	c #FDE7C3",
"|.	c #F5D9B4",
"1.	c #85552B",
"2.	c #736E6C",
"3.	c #F9F1E4",
"4.	c #FEEACC",
"5.	c #F9C48E",
"6.	c #7A4619",
"7.	c #9E9E9D",
"8.	c #BE6D18",
"9.	c #FDDDAB",
"0.	c #DEC297",
"a.	c #312B23",
"b.	c #9E9485",
"c.	c #F2DCB9",
"d.	c #F5DDBF",
"e.	c #8F5D32",
"f.	c #919192",
"g.	c #F6EAD6",
"h.	c #F6C292",
"i.	c #8F4D14",
"j.	c #9F9F9E",
"k.	c #FEDDAC",
"l.	c #585149",
"m.	c #2A2A2C",
"n.	c #ACA499",
"o.	c #ECD3AB",
"p.	c #FDDFB0",
"q.	c #FDEBCD",
"r.	c #F8DAAF",
"s.	c #8D5827",
"t.	c #908985",
"u.	c #F6DABE",
"v.	c #8E5626",
"w.	c #7F7B78",
"x.	c #9F9F9F",
"y.	c #A55912",
"z.	c #FECD92",
"A.	c #DFCAA9",
"B.	c #DBC7A8",
"C.	c #FDD59F",
"D.	c #FDC48C",
"E.	c #E6984D",
"F.	c #83430C",
"G.	c #2B2B2D",
"H.	c #535354",
"I.	c #38302C",
"J.	c #AE5503",
"K.	c #E58834",
"L.	c #E58B3A",
"M.	c #CA670A",
"N.	c #773803",
"O.	c #573010",
"P.	c #484849",
"Q.	c #929293",
"R.	c #151517",
"S.	c #717173",
"T.	c #272729",
"U.	c #989899",
"V.	c #4E4239",
"W.	c #442C18",
"X.	c #493728",
"Y.	c #747476",
"Z.	c #A3A3A3",
"`.	c #E5E5E4",
" +	c #353536",
".+	c #2D2D2F",
"++	c #2F2F31",
"@+	c #4A4A4B",
"#+	c #D0D0D0",
"$+	c #DEDEDD",
"%+	c #313132",
"&+	c #0A0A0C",
"*+	c #171719",
"=+	c #A3A3A2",
"-+	c #414142",
";+	c #505051",
"                                        ",
"              . + @ @ @ # # $ %         ",
"            & * = - ; > , ' ) ! ~       ",
"{ ] ^     / ( _ : < ; [ } | ) 1 2 3     ",
"  4 5 6 7 8 9 0 a b ; c d e ) ) f g     ",
"    h i j k l m n o p q r s t ) f       ",
"      u v w x y z o p q r A B C f       ",
"    D E F 5 G H H H H H r r I J K       ",
"    L M N O P Q q p o R S T U V W X     ",
"  Y Z `  ...+.@.#. .o $.%.&.U *.=.      ",
"  -.;.>.o p ,.'.).!.p q ~.{.].^./.      ",
"(._.:.<.[.}.q |.1.2.3.q r 4.5.6.        ",
"7.8.9.0.a.b.c.H d.e.f.g.r h.i.          ",
"j.8.k.l.m.n.o.p.q.r.s.t.u.v.w.          ",
"x.y.z.A.B.9.9.9.C.D.E.F.f.G.H.          ",
"  I.J.K.L.L.L.L.M.N.O.P.Q.R.S.T.        ",
"  U.V.W.W.W.W.W.X.Y.Z.`.   +.+++@+      ",
"      #+#+                $+%+&+*+      ",
"                              =+-+;+    ",
"                                        "};
